"TransactionalOrg","Description","Currency","Form of payment","Business Partner","Due date","Bank account","Cash book","GL item","Amount"
"Pamplona","First testing payable","EUR","Cash","VA","2009-11-15","SampleBank. 1234-0001-00-1111111111"," ","Payables",1504.11
"Pamplona","Second testing payable","EUR","Credit Card","VB","2009-11-15","SampleBank. 1234-0001-00-1111111111"," ","Payables",51504.02
"Pamplona","Third testing payable","EUR","Money Order","VB","2009-11-15","SampleBank. 1234-0001-00-1111111111"," ","Payables",852.69
